Coe "super" class — Coe • Momocs
…
bot.f<- efourier(bot, 12)
#> `norm=TRUE` is used and this may be troublesome. See ?efourier
bot.f
#> An OutCoe object [ elliptical Fourier analysis ]
#> --------------------
#>  - $coe: 40 outlines described, 12 harmonics
#> # A tibble: 40 x 2
#>   type   fake 
#>   <fct>  <fct>
#> 1 whisky a    
#> 2 whisky a    
#> 3 whisky a    
#> 4 whisky a    
#> 5 whisky a    
#> 6 whisky a    
#> # ... with 34 more rows
…
# An illustration of Momocs desing. See also browseVignettes("Momocs")
op <- opoly(olea, 5)
#> 'nb.pts' missing and set to 91
op
#> An OpnCoe object [ opoly analysis ]
#> --------------------
#>  - $coe: 210 open outlines described
#>  - $baseline1: (-0.5; 0), $baseline2: (0.5; 0)
#> # A tibble: 210 x 4
#>   var   domes view  ind  
#>   <fct> <fct> <fct> <fct>
#> 1 Aglan cult  VD    O10  
#> 2 Aglan cult  VL    O10  
#> 3 Aglan cult  VD    O11  
#> 4 Aglan cult  VL    O11  
#> 5 Aglan cult  VD    O12  
#> 6 Aglan cult  VL    O12  
#> # ... with 204 more rows
…
#> iteration:  3 	gain: 1.1678 
#> iteration:  4 	gain: 0.0014869 
#> iteration:  5 	gain: 0.9109 
#> iteration:  6 	gain: 0.25865 
#> iteration:  7 	gain: 0.11654 
#> iteration:  8 	gain: 0.0002648 
#> iteration:  9 	gain: 0.078733 
#> iteration:  10 	gain: 0.037936 
#> iteration:  11 	gain: 0.0036029 
#> iteration:  12 	gain: 4.6608e-06 
wp
#> An LdkCoe [full Generalized Procrustes] object with: 
#> --------------------
#>  - $coo: 127 configuration of landmarks (18 +/- 0 coordinates)
#> # A tibble: 127 x 1
#>   group
#>   <fct>
#> 1 AN   
#> 2 AN   
#> 3 AN   
#> 4 AN   
#> 5 AN   
#> 6 AN   
#> # ... with 121 more rows
…
