…
## Examples

``` r
w <- filter(bot, type=="whisky")
b <- filter(bot, type=="beer")
combine(w, b)
#> Out (outlines)
#>   - 40 outlines, 162 +/- 21 coords (in $coo)
#>   - 2 classifiers (in $fac): 
#> # A tibble: 40 × 2
#>   type   fake 
#>   <fct>  <fct>
#> 1 whisky a    
#> 2 whisky a    
#> 3 whisky a    
#> 4 whisky a    
#> 5 whisky a    
#> 6 whisky a    
#> # ℹ 34 more rows
#>   - also: $ldk
# or, if you have many levels
bot_s <- chop(bot, ~type)
bot_s$whisky
#> Out (outlines)
#>   - 20 outlines, 158 +/- 23 coords (in $coo)
#>   - 2 classifiers (in $fac): 
#> # A tibble: 20 × 2
#>   type   fake 
#>   <fct>  <fct>
#> 1 whisky a    
#> 2 whisky a    
#> 3 whisky a    
#> 4 whisky a    
#> 5 whisky a    
#> 6 whisky a    
#> # ℹ 14 more rows
#>   - also: $ldk
# note that you can apply something (single function or a more
# complex pipe) then combine everyone, since combine also works on lists
# eg:
# bot_s2 <- efourier(bot_s, 10) # equivalent to lapply(bot_s, efourier, 10)
# bot_sf <- combine(bot_s2)

# pipe style
efourier(bot_s, 10) %>% combine()
#> 'norm=TRUE' is used and this may be troublesome. See ?efourier #Details
#> 'norm=TRUE' is used and this may be troublesome. See ?efourier #Details
#> An OutCoe object [ combined: efourier + efourier analyses ]
#> --------------------
#>  - $coe: 20 outlines described, and (total) 80 coefficients
#> # A tibble: 20 × 2
#>   type  fake 
#>   <fct> <fct>
#> 1 beer  c    
#> 2 beer  c    
#> 3 beer  c    
#> 4 beer  c    
#> 5 beer  c    
#> 6 beer  c    
#> # ℹ 14 more rows
```
