Coo "super" class — Coo • Momocs
…
# Let's take an Out example. But all methods shown here
# work on Ldk (try on 'wings') and on Opn ('olea')
bot
#> Out (outlines)
#>   - 40 outlines, 162 +/- 21 coords (in $coo)
#>   - 2 classifiers (in $fac): 
#> # A tibble: 40 × 2
#>   type   fake 
#>   <fct>  <fct>
#> 1 whisky a    
#> 2 whisky a    
#> 3 whisky a    
#> 4 whisky a    
#> 5 whisky a    
#> 6 whisky a    
#> # ℹ 34 more rows
…
