…
#>       310.0406       230.7661       248.5782       325.6573       255.6335 
#>          amrut    ballantines      bushmills         chivas        dalmore 
#>       287.7783       259.1542       297.9153       283.8156       247.1982 
#>   famousgrouse    glendronach   glenmorangie   highlandpark    jackdaniels 
#>       204.7011       274.2665       328.5136       252.6141       274.6856 
#>             jb  johnniewalker       magallan     makersmark           oban 
#>       340.9851       114.5988       244.4261       297.1638       283.9853 
#>     oldpotrero      redbreast         tamdhu     wildturkey         yoichi 
#>       208.3185       150.1516       337.8220       374.5002       249.7048 
# add it to $fac
mutate(bot, size=coo_centsize(bot))
#> Out (outlines)
#>   - 40 outlines, 162 +/- 21 coords (in $coo)
#>   - 3 classifiers (in $fac): 
#> # A tibble: 40 × 3
#>   type   fake   size
#>   <fct>  <fct> <dbl>
#> 1 whisky a      364.
#> 2 whisky a      333.
#> 3 whisky a      232.
#> 4 whisky a      267.
#> 5 whisky a      300.
#> 6 whisky a      220.
#> # ℹ 34 more rows
…
