…
``` r
data(bot)
w <- filter(bot, type=="whisky")
b <- filter(bot, type=="beer")
wf <- efourier(w, 10)
#> 'norm=TRUE' is used and this may be troublesome. See ?efourier #Details
bf <- efourier(b, 10)
#> 'norm=TRUE' is used and this may be troublesome. See ?efourier #Details
wbf <- combine(wf, bf)
dissolve(wbf, 1)
#> An OutCoe object [ elliptical Fourier analysis ]
#> --------------------
#>  - $coe: 20 outlines described, 10 harmonics
#> # A tibble: 20 × 2
#>   type   fake 
#>   <fct>  <fct>
#> 1 whisky a    
#> 2 whisky a    
#> 3 whisky a    
#> 4 whisky a    
#> 5 whisky a    
#> 6 whisky a    
#> # ℹ 14 more rows
dissolve(wbf, 2)
#> An OutCoe object [ elliptical Fourier analysis ]
#> --------------------
#>  - $coe: 20 outlines described, 10 harmonics
#> # A tibble: 20 × 2
#>   type   fake 
#>   <fct>  <fct>
#> 1 whisky a    
#> 2 whisky a    
#> 3 whisky a    
#> 4 whisky a    
#> 5 whisky a    
#> 6 whisky a    
#> # ℹ 14 more rows

# or using chop (yet combine here makes no sense)
bw <- bot %>% chop(~type) %>% lapply(efourier, 10) %>% combine
#> 'norm=TRUE' is used and this may be troublesome. See ?efourier #Details
#> 'norm=TRUE' is used and this may be troublesome. See ?efourier #Details
bw %>% dissolve(1)
#> An OutCoe object [ elliptical Fourier analysis ]
#> --------------------
#>  - $coe: 20 outlines described, 10 harmonics
#> # A tibble: 20 × 2
#>   type  fake 
#>   <fct> <fct>
#> 1 beer  c    
#> 2 beer  c    
#> 3 beer  c    
#> 4 beer  c    
#> 5 beer  c    
#> 6 beer  c    
#> # ℹ 14 more rows
bw %>% dissolve(2)
#> An OutCoe object [ elliptical Fourier analysis ]
#> --------------------
#>  - $coe: 20 outlines described, 10 harmonics
#> # A tibble: 20 × 2
#>   type  fake 
#>   <fct> <fct>
#> 1 beer  c    
#> 2 beer  c    
#> 3 beer  c    
#> 4 beer  c    
#> 5 beer  c    
#> 6 beer  c    
#> # ℹ 14 more rows
```
