Full Generalized Procrustes alignment between shapes with sliding landmarks — fgsProcrustes • Momocs
…
    Other procrustes functions: 
fProcrustes(),
fgProcrustes(),
pProcrustes()

    Examples

chaffp <- fgsProcrustes(chaff)
#>   |                                                                              |                                                                      |   0%  |                                                                              |==============                                                        |  20%  |                                                                              |============================                                          |  40%  |                                                                              |==========================================                            |  60%  |                                                                              |========================================================              |  80%  |                                                                              |======================================================================| 100%
chaffp
#> An LdkCoe [full Generalized Procrustes] object with: 
#> --------------------
#>  - $coo: 21 configuration of landmarks (172 +/- 0 coordinates)
#> # A tibble: 21 x 3
#>   id    taxa  centsize
#>   <fct> <fct>    <dbl>
#> 1 571   tax1     1343.
#> 2 572   tax1     1279.
#> 3 573   tax1     1232.
#> 4 581   tax1     1296.
#> 5 582   tax1     1274.
#> 6 583   tax1     1189.
#> # … with 15 more rows
…
