…
#> highlandpark    0.08332158 -0.0437952867
#> jackdaniels     0.01064050 -0.0005682657
#> jb             -0.04043031  0.0088167995
#> johnniewalker  -0.03553374 -0.0387787659
#> magallan       -0.07106980 -0.0303786761
#> makersmark      0.06020727  0.0476203806
#> oban           -0.06297482  0.0061352696
#> oldpotrero      0.03373439  0.0616822707
#> redbreast       0.06482559  0.0494227507
#> tamdhu         -0.04715671 -0.0061720938
#> wildturkey     -0.01548202  0.0145967715
#> yoichi          0.03410175 -0.0364811930
#> 
#> $fac
#> # A tibble: 40 × 2
#>    type   fake 
#>    <fct>  <fct>
#>  1 whisky a    
#>  2 whisky a    
#>  3 whisky a    
#>  4 whisky a    
#>  5 whisky a    
#>  6 whisky a    
#>  7 whisky a    
#>  8 whisky a    
#>  9 whisky a    
#> 10 whisky a    
#> # ℹ 30 more rows
…
