Builds an Opn object — Opn • Momocs
…
#Methods on Opn
methods(class=Opn)
#>  [1] add_ldk           combine           coo_bookstein     coo_sample_prop  
#>  [5] coo_sample        coo_slice         coo_smoothcurve   def_ldk_angle    
#>  [9] def_ldk_direction def_ldk_tips      def_ldk           dfourier         
#> [13] fgProcrustes      get_ldk           mosaic            npoly            
#> [17] opoly             panel             pile              rearrange_ldk    
#> see '?methods' for accessing help and source code
# we load some open outlines. See ?olea for credits
olea
#> Opn (curves)
#>   - 210 curves, 99 +/- 3 coords (in $coo)
#>   - 4 classifiers (in $fac): 
#> # A tibble: 210 x 4
#>   var   domes view  ind  
#>   <fct> <fct> <fct> <fct>
#> 1 Aglan cult  VD    O10  
#> 2 Aglan cult  VL    O10  
#> 3 Aglan cult  VD    O11  
#> 4 Aglan cult  VL    O11  
#> 5 Aglan cult  VD    O12  
#> 6 Aglan cult  VL    O12  
#> # … with 204 more rows
…
# orthogonal polynomials
op <- opoly(olea, degree=5)
#> 'nb.pts' missing and set to 91
# we print the Coe
op
#> An OpnCoe object [ opoly analysis ]
#> --------------------
#>  - $coe: 210 open outlines described
#>  - $baseline1: (-0.5; 0), $baseline2: (0.5; 0)
#> # A tibble: 210 x 4
#>   var   domes view  ind  
#>   <fct> <fct> <fct> <fct>
#> 1 Aglan cult  VD    O10  
#> 2 Aglan cult  VL    O10  
#> 3 Aglan cult  VD    O11  
#> 4 Aglan cult  VL    O11  
#> 5 Aglan cult  VD    O12  
#> 6 Aglan cult  VL    O12  
#> # … with 204 more rows
…
