…
#>     
#>      O1 O10 O11 O12 O13 O14 O15 O16 O17 O18 O19 O2 O20 O21 O22 O23 O24 O25 O26
#>   VD  1   1   1   1   1   1   1   1   1   1   1  1   1   1   1   1   1   1   1
#>   VL  1   1   1   1   1   1   1   1   1   1   1  1   1   1   1   1   1   1   1
#>     
#>      O27 O28 O29 O3 O30 O4 O5 O6 O7 O8 O9
#>   VD   1   1   1  1   1  1  1  1  1  1  1
#>   VL   1   1   1  1   1  1  1  1  1  1  1
# indeed
rm_uncomplete(ol, id="ind", by="view")
#> all ids have 2 slices
#> Opn (curves)
#>   - 60 curves, 98 +/- 4 coords (in $coo)
#>   - 4 classifiers (in $fac): 
#> # A tibble: 60 × 4
#>   var   domes view  ind  
#>   <fct> <fct> <fct> <fct>
#> 1 Aglan cult  VD    O10  
#> 2 Aglan cult  VL    O10  
#> 3 Aglan cult  VD    O11  
#> 4 Aglan cult  VL    O11  
#> 5 Aglan cult  VD    O12  
#> 6 Aglan cult  VL    O12  
#> # ℹ 54 more rows
…
