…
## Examples

``` r
# samples 50% of the bottles no matter their type
sample_frac(bot, 0.5)
#> Out (outlines)
#>   - 20 outlines, 159 +/- 23 coords (in $coo)
#>   - 2 classifiers (in $fac): 
#> # A tibble: 20 × 2
#>   type   fake 
#>   <fct>  <fct>
#> 1 beer   d    
#> 2 beer   d    
#> 3 beer   d    
#> 4 whisky a    
#> 5 beer   c    
#> 6 beer   d    
#> # ℹ 14 more rows
…
