Sample a fraction of shapes — sample_frac • Momocs
…
    Examples

# samples 50% of the bottles no matter their type
sample_frac(bot, 0.5)
#> Out (outlines)
#>   - 20 outlines, 158 +/- 22 coords (in $coo)
#>   - 2 classifiers (in $fac): 
#> # A tibble: 20 × 2
#>   type   fake 
#>   <fct>  <fct>
#> 1 beer   d    
#> 2 whisky a    
#> 3 beer   c    
#> 4 beer   d    
#> 5 beer   d    
#> 6 beer   d    
#> # ℹ 14 more rows
…
