How many axes to retain this much of variance or trace ? — scree • Momocs
…
    Value

scree returns a data.frame, scree_min a numeric, scree_plot a ggplot.

    Examples

# On PCA
bp <- PCA(efourier(bot))
#> 'norm=TRUE' is used and this may be troublesome. See ?efourier #Details
#> 'nb.h' set to 10 (99% harmonic power)
scree(bp)
#> # A tibble: 40 × 3
#>     axis proportion cumsum
#>    <int>      <dbl>  <dbl>
#>  1     1    0.761    0.761
#>  2     2    0.170    0.931
#>  3     3    0.0294   0.960
#>  4     4    0.0135   0.974
#>  5     5    0.00860  0.982
#>  6     6    0.00719  0.990
#>  7     7    0.00306  0.993
#>  8     8    0.00190  0.994
#>  9     9    0.00159  0.996
#> 10    10    0.00122  0.997
#> # ℹ 30 more rows
…
