Layered shape and multivariate plots with grindr
…
x

## Out (outlines)
##   - 40 outlines, 162 +/- 21 coords (in $coo)
##   - 3 classifiers (in $fac): 
## # A tibble: 40 x 3
##   type   fake     cs
##   <fct>  <fct> <dbl>
## 1 whisky a      335.
## 2 whisky a      307.
## 3 whisky a      220.
## 4 whisky a      245.
## 5 whisky a      277.
## 6 whisky a      210.
## # ... with 34 more rows
##   - also: $ldk
…
