Operations on shapes • Momocs
…
## [1] "coo_align"          "coo_aligncalliper"  "coo_alignminradius"
## [4] "coo_alignxax"       "coo_angle_edges"    "coo_angle_tangent"

length(cool)            # how many are defined

## [1] 95

Scalar descriptors of shape

coo_scalar calculate all scalar descriptors included in Momocs. coo_rectilinearity is not included by default since it takes a looot of time to compute.

df <- shapes %>% coo_scalars()
df

## # A tibble: 30 x 15
##      area calliper centsize circularity circularityharali… circularitynorm
##     <dbl>    <dbl>    <dbl>       <dbl>              <dbl>           <dbl>
##  1 20030.     319.     87.9        54.4               2.21            4.33
##  2 26078.     311.    103.         32.0               2.47            2.55
##  3 31516      280.     91.2        51.1               2.43            4.07
##  4 14180.     231.     73.0        46.6               2.84            3.71
##  5  9282.     206.     63.4        41.8               2.33            3.32
##  6 24060.     263.     91.2        35.9               3.84            2.85
##  7 14940.     263.     81.5        52.0               2.74            4.14
##  8 33921      352.    109.         35.7               2.83            2.84
##  9 18654      209.     67.3        74.1               2.45            5.89
## 10 36654.     312.     98.3       106.                2.72            8.45
## # ... with 20 more rows, and 9 more variables: convexity <dbl>,
## #   eccentricityboundingbox <dbl>, eccentricityeigen <dbl>,
## #   elongation <dbl>, length <dbl>, perim <dbl>, rectangularity <dbl>,
## #   solidity <dbl>, width <dbl>
…
