Layered shape and multivariate plots with grindr • Momocs
…
x

## Out (outlines)
##   - 40 outlines, 162 +/- 21 coords (in $coo)
##   - 2 classifiers (in $fac): 
## # A tibble: 40 x 2
##   type   fake 
##   <fct>  <fct>
## 1 whisky a    
## 2 whisky a    
## 3 whisky a    
## 4 whisky a    
## 5 whisky a    
## 6 whisky a    
## # ... with 34 more rows
##   - also: $ldk
…
