Momocs speed dating • Momocs
…
## Out (outlines)
##   - 40 outlines, 162 +/- 21 coords (in $coo)
##   - 2 classifiers (in $fac): 
## # A tibble: 40 x 2
##   type   fake 
##   <fct>  <fct>
## 1 whisky a    
## 2 whisky a    
## 3 whisky a    
## 4 whisky a    
## 5 whisky a    
## 6 whisky a    
## # ... with 34 more rows
##   - also: $ldk
…
## Out (outlines)
##   - 40 outlines, 162 +/- 21 coords (in $coo)
##   - 2 classifiers (in $fac): 
## # A tibble: 40 x 2
##   type   fake 
##   <fct>  <fct>
## 1 whisky a    
## 2 whisky a    
## 3 whisky a    
## 4 whisky a    
## 5 whisky a    
## 6 whisky a    
## # ... with 34 more rows
##   - also: $ldk
…
## # A tibble: 138 x 2
##       dx    dy
##    <dbl> <dbl>
##  1    0.    0.
##  2    3.  -21.
##  3    3.  -32.
##  4    6.  -53.
##  5    9.  -74.
##  6   11.  -84.
##  7   15. -105.
##  8   17. -126.
##  9   20. -147.
## 10   22. -158.
## # ... with 128 more rows
…
Here, 10 harmonics gather 99% of the harmonic power. If you’re happy with this criterium, you can even omit nb.h in efourier: that’s the default parameter, returned with a message.

bot.f <- efourier(bot, nb.h=10)
bot.f

## An OutCoe object [ elliptical Fourier analysis ]
## --------------------
##  - $coe: 40 outlines described, 10 harmonics
## # A tibble: 40 x 2
##   type   fake 
##   <fct>  <fct>
## 1 whisky a    
## 2 whisky a    
## 3 whisky a    
## 4 whisky a    
## 5 whisky a    
## 6 whisky a    
## # ... with 34 more rows
…
## Opn (curves)
##   - 210 curves, 99 +/- 4 coords (in $coo)
##   - 4 classifiers (in $fac): 
## # A tibble: 210 x 4
##   var   domes view  ind  
##   <fct> <fct> <fct> <fct>
## 1 Aglan cult  VD    O10  
## 2 Aglan cult  VL    O10  
## 3 Aglan cult  VD    O11  
## 4 Aglan cult  VL    O11  
## 5 Aglan cult  VD    O12  
## 6 Aglan cult  VL    O12  
## # ... with 204 more rows
##   - also: $ldk
…
##     var
## view Aglan Cypre MouBo1 PicMa
##   VD    30    30     30    30
##   VL    30     0     30    30
## An OpnCoe object [ combined: opoly + opoly analyses ]
## --------------------
##  - $coe: 90 open outlines described
##  - $baseline1: (-0.5; 0; -0.5; 0)
##  - $baseline2: (0.5; 0; 0.5; 0)
## # A tibble: 90 x 4
##   var   domes view  ind  
##   <fct> <fct> <fct> <fct>
## 1 Aglan cult  VD    O10  
## 2 Aglan cult  VD    O11  
## 3 Aglan cult  VD    O12  
## 4 Aglan cult  VD    O13  
## 5 Aglan cult  VD    O14  
## 6 Aglan cult  VD    O15  
## # ... with 84 more rows
…
## Out (outlines)
##   - 240 outlines, 80 +/- 0 coords (in $coo)
##   - 1 classifiers (in $fac): 
## # A tibble: 240 x 1
##   aut  
##   <fct>
## 1 ced  
## 2 ced  
## 3 ced  
## 4 ced  
## 5 ced  
## 6 ced  
## # ... with 234 more rows
##   - also: $ldk
…
## [1] "TraCoe" "Coe"   
## # A tibble: 240 x 3
##     area circularity   d1.3
##  * <dbl>       <dbl>  <dbl>
##  1 0.627        14.0 0.0695
##  2 0.593        14.5 0.0639
##  3 0.611        16.1 0.0699
##  4 0.539        15.7 0.0627
##  5 0.541        13.6 0.0613
##  6 0.611        16.0 0.0692
##  7 0.617        16.5 0.0755
##  8 0.535        15.8 0.0655
##  9 0.521        14.3 0.0622
## 10 0.546        15.2 0.0642
## # ... with 230 more rows
…
## A TraCoe object --------------------
##  - $coe: 150 shapes described with 4 variables
## # A tibble: 150 x 1
##   sp    
##   <fct> 
## 1 setosa
## 2 setosa
## 3 setosa
## 4 setosa
## 5 setosa
## 6 setosa
## # ... with 144 more rows
…
dplyr verbs

One common yet boring task of morphometrics consists in handling datasets: add new information, remove some individuals, etc.

Momocs adapts dplyr verbs to its objects, and add new ones. If you have never heard of dplyr, let’s have a look to its introduction there, this may change your (R) life.

Basics verbs are implemented; try the following:

data(olea)
olea

## Opn (curves)
##   - 210 curves, 99 +/- 4 coords (in $coo)
##   - 4 classifiers (in $fac): 
## # A tibble: 210 x 4
##   var   domes view  ind  
##   <fct> <fct> <fct> <fct>
## 1 Aglan cult  VD    O10  
## 2 Aglan cult  VL    O10  
## 3 Aglan cult  VD    O11  
## 4 Aglan cult  VL    O11  
## 5 Aglan cult  VD    O12  
## 6 Aglan cult  VL    O12  
## # ... with 204 more rows
##   - also: $ldk
…
slice(olea, -(1:100))

## Opn (curves)
##   - 110 curves, 99 +/- 4 coords (in $coo)
##   - 4 classifiers (in $fac): 
## # A tibble: 110 x 4
##   var   domes view  ind  
##   <fct> <fct> <fct> <fct>
## 1 PicMa cult  VD    O15  
## 2 PicMa cult  VL    O15  
## 3 PicMa cult  VD    O16  
## 4 PicMa cult  VL    O16  
## 5 PicMa cult  VD    O17  
## 6 PicMa cult  VL    O17  
## # ... with 104 more rows
##   - also: $ldk

# filter: select individual based on a logical condition
filter(olea, domes=="cult", view!="VD")

## Opn (curves)
##   - 60 curves, 97 +/- 4 coords (in $coo)
##   - 4 classifiers (in $fac): 
## # A tibble: 60 x 4
##   var   domes view  ind  
##   <fct> <fct> <fct> <fct>
## 1 Aglan cult  VL    O10  
## 2 Aglan cult  VL    O11  
## 3 Aglan cult  VL    O12  
## 4 Aglan cult  VL    O13  
## 5 Aglan cult  VL    O14  
## 6 Aglan cult  VL    O15  
## # ... with 54 more rows
##   - also: $ldk

# select: pick, reorder columns from the $fac
select(olea, 1, Ind=ind)

## Opn (curves)
##   - 210 curves, 99 +/- 4 coords (in $coo)
##   - 2 classifiers (in $fac): 
## # A tibble: 210 x 2
##   var   Ind  
##   <fct> <fct>
## 1 Aglan O10  
## 2 Aglan O10  
## 3 Aglan O11  
## 4 Aglan O11  
## 5 Aglan O12  
## 6 Aglan O12  
## # ... with 204 more rows
##   - also: $ldk

# mutate: add new columns
mutate(olea, fake=factor(rep(letters[1:2], each=105)))

## Opn (curves)
##   - 210 curves, 99 +/- 4 coords (in $coo)
##   - 5 classifiers (in $fac): 
## # A tibble: 210 x 5
##   var   domes view  ind   fake 
##   <fct> <fct> <fct> <fct> <fct>
## 1 Aglan cult  VD    O10   a    
## 2 Aglan cult  VL    O10   a    
## 3 Aglan cult  VD    O11   a    
## 4 Aglan cult  VL    O11   a    
## 5 Aglan cult  VD    O12   a    
## 6 Aglan cult  VL    O12   a    
## # ... with 204 more rows
##   - also: $ldk

And you can pipe those operations: say, we only want dorsal views from domesticated individuals, for a (renamed) ‘status’ column, and drop the ‘ind’ column:

olea %>% 
filter(domes=="cult", view=="VD") %>% 
rename(domesticated=domes) %>% 
select(-ind)

## Opn (curves)
##   - 90 curves, 100 +/- 2 coords (in $coo)
##   - 3 classifiers (in $fac): 
## # A tibble: 90 x 3
##   var   domesticated view 
##   <fct> <fct>        <fct>
## 1 Aglan cult         VD   
## 2 Aglan cult         VD   
## 3 Aglan cult         VD   
## 4 Aglan cult         VD   
## 5 Aglan cult         VD   
## 6 Aglan cult         VD   
## # ... with 84 more rows
##   - also: $ldk
…
