An introduction to Momocs • Momocs
…
## Out (outlines)
##   - 40 outlines, 162 +/- 21 coords (in $coo)
##   - 2 classifiers (in $fac): 
## # A tibble: 40 x 2
##   type   fake 
##   <fct>  <fct>
## 1 whisky a    
## 2 whisky a    
## 3 whisky a    
## 4 whisky a    
## 5 whisky a    
## 6 whisky a    
## # ... with 34 more rows
##   - also: $ldk
…
## Out (outlines)
##   - 40 outlines, 162 +/- 21 coords (in $coo)
##   - 2 classifiers (in $fac): 
## # A tibble: 40 x 2
##   type   fake 
##   <fct>  <fct>
## 1 whisky a    
## 2 whisky a    
## 3 whisky a    
## 4 whisky a    
## 5 whisky a    
## 6 whisky a    
## # ... with 34 more rows
##   - also: $ldk
…
## # A tibble: 138 x 2
##       dx    dy
##    <dbl> <dbl>
##  1     0     0
##  2     3   -21
##  3     3   -32
##  4     6   -53
##  5     9   -74
##  6    11   -84
##  7    15  -105
##  8    17  -126
##  9    20  -147
## 10    22  -158
## # ... with 128 more rows
Graphically, this is equivalent to fitting Ptolemaic ellipses on the plane, try the following:

Ptolemy(bot[1])

Let’s calibrate the number of harmonics required. More details can be found in their respective help files. Try the following:

Here, 10 harmonics gather 99% of the harmonic power. If you’re happy with this criterium, you can even omit nb.h in efourier: that’s the default parameter, returned with a message.

bot.f <- efourier(bot, nb.h=10)
bot.f

## An OutCoe object [ elliptical Fourier analysis ]
## --------------------
##  - $coe: 40 outlines described, 10 harmonics
## # A tibble: 40 x 2
##   type   fake 
##   <fct>  <fct>
## 1 whisky a    
## 2 whisky a    
## 3 whisky a    
## 4 whisky a    
## 5 whisky a    
## 6 whisky a    
## # ... with 34 more rows
…
## Opn (curves)
##   - 210 curves, 99 +/- 4 coords (in $coo)
##   - 4 classifiers (in $fac): 
## # A tibble: 210 x 4
##   var   domes view  ind  
##   <fct> <fct> <fct> <fct>
## 1 Aglan cult  VD    O10  
## 2 Aglan cult  VL    O10  
## 3 Aglan cult  VD    O11  
## 4 Aglan cult  VL    O11  
## 5 Aglan cult  VD    O12  
## 6 Aglan cult  VL    O12  
## # ... with 204 more rows
##   - also: $ldk
…
##     var
## view Aglan Cypre MouBo1 PicMa
##   VD    30    30     30    30
##   VL    30     0     30    30
## An OpnCoe object [ combined: opoly + opoly analyses ]
## --------------------
##  - $coe: 90 open outlines described
##  - $baseline1: (-0.5; 0; -0.5; 0)
##  - $baseline2: (0.5; 0; 0.5; 0)
## # A tibble: 90 x 4
##   var   domes view  ind  
##   <fct> <fct> <fct> <fct>
## 1 Aglan cult  VD    O10  
## 2 Aglan cult  VD    O11  
## 3 Aglan cult  VD    O12  
## 4 Aglan cult  VD    O13  
## 5 Aglan cult  VD    O14  
## 6 Aglan cult  VD    O15  
## # ... with 84 more rows
…
## Out (outlines)
##   - 240 outlines, 80 +/- 0 coords (in $coo)
##   - 1 classifiers (in $fac): 
## # A tibble: 240 x 1
##   aut  
##   <fct>
## 1 ced  
## 2 ced  
## 3 ced  
## 4 ced  
## 5 ced  
## 6 ced  
## # ... with 234 more rows
##   - also: $ldk
…
## [1] "TraCoe" "Coe"   
## # A tibble: 240 x 3
##     area circularity   d1.3
##  * <dbl>       <dbl>  <dbl>
##  1 0.627        14.0 0.0695
##  2 0.593        14.5 0.0639
##  3 0.611        16.1 0.0699
##  4 0.539        15.7 0.0627
##  5 0.541        13.6 0.0613
##  6 0.611        16.0 0.0692
##  7 0.617        16.5 0.0755
##  8 0.535        15.8 0.0655
##  9 0.521        14.3 0.0622
## 10 0.546        15.2 0.0642
## # ... with 230 more rows
…
See ?plot_PCA for much more complex graphics. And also these helper functions for the PCA class:

scree(bot.p)
scree_plot(bot.p)
boxplot(bot.p, 1)
PCcontrib(bot.p)

You can also export the PCA object as a .txt file (see ?export) or as a data_frame for further use with R with:

bot.p %>% as_df(3) # The first three PCs 

## # A tibble: 40 x 5
##    type   fake      PC1       PC2      PC3
##    <fct>  <fct>   <dbl>     <dbl>    <dbl>
##  1 whisky a     -0.0528 -0.0231    0.00245
##  2 whisky a     -0.0369  0.00725  -0.00866
##  3 whisky a      0.0809 -0.00479  -0.00222
##  4 whisky a     -0.0694  0.00229  -0.0158 
##  5 whisky a     -0.0112  0.0476   -0.0127 
##  6 whisky a      0.115  -0.0170   -0.0103 
##  7 whisky a     -0.0443 -0.0186   -0.00496
##  8 whisky a      0.0287  0.00996  -0.0114 
##  9 whisky a      0.0123  0.000603  0.00364
## 10 whisky a     -0.0458  0.00564  -0.00889
## # ... with 30 more rows
…
Manipulating objects

One common yet boring task of morphometrics consists in handling datasets: add new information, remove some individuals, etc.

Momocs adapts dplyr verbs to its objects, and add new ones. If you have never heard of dplyr, let’s have a look to its introduction there, this may change your (R) life.

data(olea)
olea

## Opn (curves)
##   - 210 curves, 99 +/- 4 coords (in $coo)
##   - 4 classifiers (in $fac): 
## # A tibble: 210 x 4
##   var   domes view  ind  
##   <fct> <fct> <fct> <fct>
## 1 Aglan cult  VD    O10  
## 2 Aglan cult  VL    O10  
## 3 Aglan cult  VD    O11  
## 4 Aglan cult  VL    O11  
## 5 Aglan cult  VD    O12  
## 6 Aglan cult  VL    O12  
## # ... with 204 more rows
##   - also: $ldk

mutate: add new columns

mutate(olea, fake=factor(rep(letters[1:2], each=105)))

## Opn (curves)
##   - 210 curves, 99 +/- 4 coords (in $coo)
##   - 5 classifiers (in $fac): 
## # A tibble: 210 x 5
##   var   domes view  ind   fake 
##   <fct> <fct> <fct> <fct> <fct>
## 1 Aglan cult  VD    O10   a    
## 2 Aglan cult  VL    O10   a    
## 3 Aglan cult  VD    O11   a    
## 4 Aglan cult  VL    O11   a    
## 5 Aglan cult  VD    O12   a    
## 6 Aglan cult  VL    O12   a    
## # ... with 204 more rows
##   - also: $ldk
…
slice(olea, -(1:100))

## Opn (curves)
##   - 110 curves, 99 +/- 4 coords (in $coo)
##   - 4 classifiers (in $fac): 
## # A tibble: 110 x 4
##   var   domes view  ind  
##   <fct> <fct> <fct> <fct>
## 1 PicMa cult  VD    O15  
## 2 PicMa cult  VL    O15  
## 3 PicMa cult  VD    O16  
## 4 PicMa cult  VL    O16  
## 5 PicMa cult  VD    O17  
## 6 PicMa cult  VL    O17  
## # ... with 104 more rows
##   - also: $ldk

filter: select individual based on a logical condition

filter(olea, domes=="cult")

## Opn (curves)
##   - 150 curves, 99 +/- 3 coords (in $coo)
##   - 4 classifiers (in $fac): 
## # A tibble: 150 x 4
##   var   domes view  ind  
##   <fct> <fct> <fct> <fct>
## 1 Aglan cult  VD    O10  
## 2 Aglan cult  VL    O10  
## 3 Aglan cult  VD    O11  
## 4 Aglan cult  VL    O11  
## 5 Aglan cult  VD    O12  
## 6 Aglan cult  VL    O12  
## # ... with 144 more rows
##   - also: $ldk

# %in% is useful
filter(olea, var %in% c("Aglan", "Cypre"))

## Opn (curves)
##   - 90 curves, 99 +/- 4 coords (in $coo)
##   - 4 classifiers (in $fac): 
## # A tibble: 90 x 4
##   var   domes view  ind  
##   <fct> <fct> <fct> <fct>
## 1 Aglan cult  VD    O10  
## 2 Aglan cult  VL    O10  
## 3 Aglan cult  VD    O11  
## 4 Aglan cult  VL    O11  
## 5 Aglan cult  VD    O12  
## 6 Aglan cult  VL    O12  
## # ... with 84 more rows
##   - also: $ldk

# or its complement
filter(olea, !(var %in% c("Aglan", "Cypre")))

## Opn (curves)
##   - 120 curves, 99 +/- 3 coords (in $coo)
##   - 4 classifiers (in $fac): 
## # A tibble: 120 x 4
##   var   domes view  ind  
##   <fct> <fct> <fct> <fct>
## 1 PicMa cult  VD    O10  
## 2 PicMa cult  VL    O10  
## 3 PicMa cult  VD    O11  
## 4 PicMa cult  VL    O11  
## 5 PicMa cult  VD    O12  
## 6 PicMa cult  VL    O12  
## # ... with 114 more rows
##   - also: $ldk

# Also works with more than one condition
filter(olea, domes=="cult", view!="VD")

## Opn (curves)
##   - 60 curves, 97 +/- 4 coords (in $coo)
##   - 4 classifiers (in $fac): 
## # A tibble: 60 x 4
##   var   domes view  ind  
##   <fct> <fct> <fct> <fct>
## 1 Aglan cult  VL    O10  
## 2 Aglan cult  VL    O11  
## 3 Aglan cult  VL    O12  
## 4 Aglan cult  VL    O13  
## 5 Aglan cult  VL    O14  
## 6 Aglan cult  VL    O15  
## # ... with 54 more rows
##   - also: $ldk

# or on operation on numeric, here a dummy numeric column
olea %>% mutate(foo=1:210) %>% filter(foo<12)

## Opn (curves)
##   - 11 curves, 99 +/- 5 coords (in $coo)
##   - 5 classifiers (in $fac): 
## # A tibble: 11 x 5
##   var   domes view  ind     foo
##   <fct> <fct> <fct> <fct> <int>
## 1 Aglan cult  VD    O10       1
## 2 Aglan cult  VL    O10       2
## 3 Aglan cult  VD    O11       3
## 4 Aglan cult  VL    O11       4
## 5 Aglan cult  VD    O12       5
## 6 Aglan cult  VL    O12       6
## # ... with 5 more rows
##   - also: $ldk

olea %>% mutate(foo=1:210) %>% filter(foo>median(foo))

## Opn (curves)
##   - 105 curves, 99 +/- 4 coords (in $coo)
##   - 5 classifiers (in $fac): 
## # A tibble: 105 x 5
##   var   domes view  ind     foo
##   <fct> <fct> <fct> <fct> <int>
## 1 PicMa cult  VL    O17     106
## 2 PicMa cult  VD    O18     107
## 3 PicMa cult  VL    O18     108
## 4 PicMa cult  VD    O19     109
## 5 PicMa cult  VL    O19     110
## 6 PicMa cult  VD    O1      111
## # ... with 99 more rows
##   - also: $ldk

select: pick, reorder columns from the $fac

# reorder columns
select(olea, view, domes, var, ind)
# drop some and show the use of numeric index
select(olea, 1, Ind=ind)
# drop one
select(olea, -ind)

## Opn (curves)
##   - 210 curves, 99 +/- 4 coords (in $coo)
##   - 4 classifiers (in $fac): 
## # A tibble: 210 x 4
##   view  domes var   ind  
##   <fct> <fct> <fct> <fct>
## 1 VD    cult  Aglan O10  
## 2 VL    cult  Aglan O10  
## 3 VD    cult  Aglan O11  
## 4 VL    cult  Aglan O11  
## 5 VD    cult  Aglan O12  
## 6 VL    cult  Aglan O12  
## # ... with 204 more rows
##   - also: $ldk
## Opn (curves)
##   - 210 curves, 99 +/- 4 coords (in $coo)
##   - 2 classifiers (in $fac): 
## # A tibble: 210 x 2
##   var   Ind  
##   <fct> <fct>
## 1 Aglan O10  
## 2 Aglan O10  
## 3 Aglan O11  
## 4 Aglan O11  
## 5 Aglan O12  
## 6 Aglan O12  
## # ... with 204 more rows
##   - also: $ldk
## Opn (curves)
##   - 210 curves, 99 +/- 4 coords (in $coo)
##   - 3 classifiers (in $fac): 
## # A tibble: 210 x 3
##   var   domes view 
##   <fct> <fct> <fct>
## 1 Aglan cult  VD   
## 2 Aglan cult  VL   
## 3 Aglan cult  VD   
## 4 Aglan cult  VL   
## 5 Aglan cult  VD   
## 6 Aglan cult  VL   
## # ... with 204 more rows
##   - also: $ldk

And you can pipe those operations: say, we only want dorsal views from domesticated individuals, for a (renamed) ‘status’ column, and drop the ‘ind’ column:

olea %>%
filter(domes=="cult", view=="VD") %>%
rename(domesticated=domes) %>%
select(-ind)

## Opn (curves)
##   - 90 curves, 100 +/- 2 coords (in $coo)
##   - 3 classifiers (in $fac): 
## # A tibble: 90 x 3
##   var   domesticated view 
##   <fct> <fct>        <fct>
## 1 Aglan cult         VD   
## 2 Aglan cult         VD   
## 3 Aglan cult         VD   
## 4 Aglan cult         VD   
## 5 Aglan cult         VD   
## 6 Aglan cult         VD   
## # ... with 84 more rows
##   - also: $ldk

You can also use dplyr verbs on the fac directly, eg:

olea$fac %>% dplyr::group_by(var) %>% 
  dplyr::mutate(n=1:n(), N=n())

## # A tibble: 210 x 6
## # Groups:   var [4]
##    var   domes view  ind       n     N
##    <fct> <fct> <fct> <fct> <int> <int>
##  1 Aglan cult  VD    O10       1    60
##  2 Aglan cult  VL    O10       2    60
##  3 Aglan cult  VD    O11       3    60
##  4 Aglan cult  VL    O11       4    60
##  5 Aglan cult  VD    O12       5    60
##  6 Aglan cult  VL    O12       6    60
##  7 Aglan cult  VD    O13       7    60
##  8 Aglan cult  VL    O13       8    60
##  9 Aglan cult  VD    O14       9    60
## 10 Aglan cult  VL    O14      10    60
## # ... with 200 more rows
…
The best way to save a Momocs object is probably to use the base save function. You can call it back afterwards with load:

save(bot, file="Bottles.rda")
# closing R, going to the beach, back at work
load("Bottles.rda") # bot is back

Export from R

Any Momocs object, Coos, Coes, PCAs, etc. can be turned into a data.frame with as_df.

bot %>% as_df
bot %>% efourier %>% as_df
bot %>% efourier %>% PCA %>% as_df

## # A tibble: 40 x 4
##    coo             type   fake     cs
##    <list>          <fct>  <fct> <dbl>
##  1 <dbl [138 × 2]> whisky a      335.
##  2 <dbl [168 × 2]> whisky a      307.
##  3 <dbl [189 × 2]> whisky a      220.
##  4 <dbl [129 × 2]> whisky a      245.
##  5 <dbl [152 × 2]> whisky a      277.
##  6 <dbl [161 × 2]> whisky a      210.
##  7 <dbl [124 × 2]> whisky a      267.
##  8 <dbl [126 × 2]> whisky a      251.
##  9 <dbl [183 × 2]> whisky a      240.
## 10 <dbl [193 × 2]> whisky a      325.
## # ... with 30 more rows
## # A tibble: 40 x 43
##    type   fake     cs    A1      A2     A3     A4      A5      A6       A7
##    <fct>  <fct> <dbl> <dbl>   <dbl>  <dbl>  <dbl>   <dbl>   <dbl>    <dbl>
##  1 whisky a      335. 1.000 0.00677 0.0935 0.0137 0.0238  0.00859  0.00318
##  2 whisky a      307. 1.000 0.00737 0.0954 0.0145 0.0222  0.00667  0.00355
##  3 whisky a      220. 1.    0.0165  0.0757 0.0274 0.00988 0.0143  -0.00474
##  4 whisky a      245. 1.    0.00749 0.0962 0.0122 0.0229  0.00728  0.00550
##  5 whisky a      277. 1     0.0196  0.0928 0.0223 0.0153  0.0149   0.00252
##  6 whisky a      210. 1.000 0.0222  0.0690 0.0335 0.00932 0.0211  -0.00169
##  7 whisky a      267. 1.    0.00731 0.0911 0.0129 0.0231  0.0106   0.00458
##  8 whisky a      251. 1     0.00952 0.0857 0.0197 0.0129  0.00849 -0.00220
##  9 whisky a      240. 1     0.00959 0.0883 0.0227 0.0178  0.0107  -0.00152
## 10 whisky a      325. 1.000 0.00960 0.0919 0.0139 0.0201  0.00895  0.00240
## # ... with 30 more rows, and 33 more variables: A8 <dbl>, A9 <dbl>,
## #   A10 <dbl>, B1 <dbl>, B2 <dbl>, B3 <dbl>, B4 <dbl>, B5 <dbl>, B6 <dbl>,
## #   B7 <dbl>, B8 <dbl>, B9 <dbl>, B10 <dbl>, C1 <dbl>, C2 <dbl>, C3 <dbl>,
## #   C4 <dbl>, C5 <dbl>, C6 <dbl>, C7 <dbl>, C8 <dbl>, C9 <dbl>, C10 <dbl>,
## #   D1 <dbl>, D2 <dbl>, D3 <dbl>, D4 <dbl>, D5 <dbl>, D6 <dbl>, D7 <dbl>,
## #   D8 <dbl>, D9 <dbl>, D10 <dbl>
## # A tibble: 40 x 43
##    type   fake     cs     PC1      PC2      PC3      PC4      PC5      PC6
##    <fct>  <fct> <dbl>   <dbl>    <dbl>    <dbl>    <dbl>    <dbl>    <dbl>
##  1 whisky a      335. -0.0528 -2.31e-2  0.00245 -1.54e-2  6.05e-3 -9.73e-4
##  2 whisky a      307. -0.0369  7.25e-3 -0.00866 -9.21e-3 -2.77e-3 -2.82e-3
##  3 whisky a      220.  0.0809 -4.79e-3 -0.00222 -1.07e-2 -9.96e-4 -6.91e-3
##  4 whisky a      245. -0.0694  2.29e-3 -0.0158  -6.19e-3 -3.09e-4  3.86e-3
##  5 whisky a      277. -0.0112  4.76e-2 -0.0127   1.75e-2  1.35e-2 -6.99e-3
##  6 whisky a      210.  0.115  -1.70e-2 -0.0103  -9.12e-3  3.77e-4  1.26e-3
##  7 whisky a      267. -0.0443 -1.86e-2 -0.00496 -2.23e-4  1.90e-3  3.22e-3
##  8 whisky a      251.  0.0287  9.96e-3 -0.0114  -8.72e-3 -4.46e-3 -4.23e-3
##  9 whisky a      240.  0.0123  6.03e-4  0.00364 -8.19e-3 -3.91e-3  3.76e-4
## 10 whisky a      325. -0.0458  5.64e-3 -0.00889 -5.25e-3  3.99e-3 -2.42e-3
## # ... with 30 more rows, and 34 more variables: PC7 <dbl>, PC8 <dbl>,
## #   PC9 <dbl>, PC10 <dbl>, PC11 <dbl>, PC12 <dbl>, PC13 <dbl>, PC14 <dbl>,
## #   PC15 <dbl>, PC16 <dbl>, PC17 <dbl>, PC18 <dbl>, PC19 <dbl>,
## #   PC20 <dbl>, PC21 <dbl>, PC22 <dbl>, PC23 <dbl>, PC24 <dbl>,
## #   PC25 <dbl>, PC26 <dbl>, PC27 <dbl>, PC28 <dbl>, PC29 <dbl>,
## #   PC30 <dbl>, PC31 <dbl>, PC32 <dbl>, PC33 <dbl>, PC34 <dbl>,
## #   PC35 <dbl>, PC36 <dbl>, PC37 <dbl>, PC38 <dbl>, PC39 <dbl>, PC40 <dbl>
…
