Arrange rows by variables — arrange • Momocs
…
    Examples

olea
#> Opn (curves)
#>   - 210 curves, 99 +/- 3 coords (in $coo)
#>   - 4 classifiers (in $fac): 
#> # A tibble: 210 × 4
#>   var   domes view  ind  
#>   <fct> <fct> <fct> <fct>
#> 1 Aglan cult  VD    O10  
#> 2 Aglan cult  VL    O10  
#> 3 Aglan cult  VD    O11  
#> 4 Aglan cult  VL    O11  
#> 5 Aglan cult  VD    O12  
#> 6 Aglan cult  VL    O12  
#> # … with 204 more rows
…
