Calculates the calliper length — coo_calliper • Momocs
…
bot %>%
coo_sample(32) %>% # for speed sake
coo_calliper(arr.ind=TRUE)
#> # A tibble: 40 × 2
#>    length arr_ind  
#>  *  <dbl> <list>   
#>  1  1088. <dbl [2]>
#>  2   992. <dbl [2]>
#>  3   645. <dbl [2]>
#>  4   807. <dbl [2]>
#>  5   881. <dbl [2]>
#>  6   607. <dbl [2]>
#>  7   863. <dbl [2]>
#>  8   767. <dbl [2]>
#>  9   744. <dbl [2]>
#> 10  1047. <dbl [2]>
#> # … with 30 more rows
…
