Calculates the length of a shape — coo_length • Momocs
…
#>     pecheresse   sierranevada     tanglefoot          tauro      westmalle 
#>       928.6771       654.2412       680.6856       984.3941       768.0226 
#>          amrut    ballantines      bushmills         chivas        dalmore 
#>       864.0899       707.8465       882.0460       793.0187       672.0897 
#>   famousgrouse    glendronach   glenmorangie   highlandpark    jackdaniels 
#>       608.2238       822.0508       986.0991       705.9991       793.1392 
#>             jb  johnniewalker       magallan     makersmark           oban 
#>      1008.1334       337.7117       759.0041       851.3161       862.0016 
#>     oldpotrero      redbreast         tamdhu     wildturkey         yoichi 
#>       596.0958       426.0429      1008.3194      1097.1657       712.1001 
mutate(bot, size=coo_length(bot))
#> Out (outlines)
#>   - 40 outlines, 162 +/- 21 coords (in $coo)
#>   - 3 classifiers (in $fac): 
#> # A tibble: 40 × 3
#>   type   fake   size
#>   <fct>  <fct> <dbl>
#> 1 whisky a     1088.
#> 2 whisky a      994.
#> 3 whisky a      644.
#> 4 whisky a      806.
#> 5 whisky a      886.
#> 6 whisky a      606.
#> # … with 34 more rows
…
