Plots a cross-validation table as an heatmap — plot_CV • Momocs
…
# or build your own using the prepared data_frame:
df <- h %>% plot_CV() %$% data
#> Warning: `guides(<scale> = FALSE)` is deprecated. Please use `guides(<scale> = "none")` instead.
df
#> # A tibble: 34 × 4
#>    actual predicted     n actual2
#>    <fct>  <fct>     <dbl> <fct>  
#>  1 ced    ced       0.77  ced    
#>  2 ced    mat       0.1   ced    
#>  3 ced    rom       0.067 ced    
#>  4 ced    vince     0.067 ced    
#>  5 jeya   jeya      0.87  jeya   
#>  6 jeya   ponnu     0.067 jeya   
#>  7 jeya   vince     0.067 jeya   
#>  8 mat    ced       0.033 mat    
#>  9 mat    jeya      0.1   mat    
#> 10 mat    mat       0.47  mat    
#> # … with 24 more rows
…
