Plots Principal Component Analysis — plot.PCA • Momocs
…
### other morphometric approaches works the same
# open curves
op <- npoly(olea, 5)
#> 'nb.pts' missing and set to: 91
op.p <- PCA(op)
op.p
#> A PCA object
#> --------------------
#>  - 210 shapes 
#>  - $method: [ npoly analysis ]
#> # A tibble: 210 × 4
#>   var   domes view  ind  
#>   <fct> <fct> <fct> <fct>
#> 1 Aglan cult  VD    O10  
#> 2 Aglan cult  VL    O10  
#> 3 Aglan cult  VD    O11  
#> 4 Aglan cult  VL    O11  
#> 5 Aglan cult  VD    O12  
#> 6 Aglan cult  VL    O12  
#> # ℹ 204 more rows
…
#> iteration:  1 	gain: 53084 
#> iteration:  2 	gain: 0.1323 
#> iteration:  3 	gain: 0.056732 
#> iteration:  4 	gain: 0.00012401 
#> iteration:  5 	gain: 0.038609 
#> iteration:  6 	gain: 0.018221 
#> iteration:  7 	gain: 0.0014165 
#> iteration:  8 	gain: 6.1489e-06 
wpp <- PCA(wp)
wpp
#> A PCA object
#> --------------------
#>  - 127 shapes 
#>  - $method: [ procrustes analysis ]
#> # A tibble: 127 × 1
#>   group
#>   <fct>
#> 1 AN   
#> 2 AN   
#> 3 AN   
#> 4 AN   
#> 5 AN   
#> 6 AN   
#> # ℹ 121 more rows
…
