Radii variation Fourier transform (equally spaced radii) — rfourier • Momocs
…
# Out method
bot %>% rfourier()
#> some shapes seem(s) to have some identical coordinates
#> 'nb.h' not provided and set to 60 (99% harmonic power)
#> An OutCoe object [ radii variation (equally spaced radii) analysis ]
#> --------------------
#>  - $coe: 40 outlines described, 60 harmonics
#> # A tibble: 40 × 2
#>   type   fake 
#>   <fct>  <fct>
#> 1 whisky a    
#> 2 whisky a    
#> 3 whisky a    
#> 4 whisky a    
#> 5 whisky a    
#> 6 whisky a    
#> # ℹ 34 more rows
…
